Chapter 5 Human leukocyte antigens tools in R (hlar) | Portofolio
…
dat_MHC1 <-read.csv("doc/hla_bestanden/MHC_I_test.csv")

re_MHC1 <- CalEpletMHCI(dat_in = dat_MHC1, ver = 3)

head(re_MHC1)

## $single_detail
## # A tibble: 72 × 6
## # Rowwise: 
##    pair_id subject hla     haplotype_id mm_eplets                         mm_cnt
##      <int> <chr>   <chr>   <chr>        <chr>                              <dbl>
##  1     101 subj1   A*02:01 1            ""                                     0
##  2     101 subj1   A*01:01 2            "44KM,76ANT,163RG,166DG,77NGT"         5
##  3     101 subj1   B*15:01 1            "44RME,71TTS,156WA"                    3
##  4     101 subj1   B*08:01 2            "71TTS,156DA,177DT"                    3
##  5     101 subj1   C*03:04 1            "21H,73TVS,173K,219W,193PV,69RT,…      7
##  6     101 subj1   C*07:01 2            ""                                     0
##  7     103 subj2   A*03:01 1            "62QE,144KR,161D,275EL"                4
##  8     103 subj2   A*02:01 2            ""                                     0
##  9     103 subj2   B*07:02 1            "65QIA,69AA,180E,156R,177DK,270L"      6
## 10     103 subj2   B*08:01 2            "156DA,180E,177DT"                     3
## # ℹ 62 more rows
## 
## $overall_count
…
5.10 CalEpletMHCII

Deze functie wordt toegepast om eptlet-mismatches te berekenen op basis van MHC-II (Major Histocompatibility Complex Class II) gegevens. MHC-II moleculen spelen een cruciale rol bij de presentatie van antigenen aan CD4+ T-cellen in het immuunsysteem.

### CalEpletMHCII
MHC_II_eplet_v3 <- read.csv("doc/hla_bestanden/MHC_II_eplet_B_v3.csv")

dat_MHCII <-read.csv("doc/hla_bestanden/MHC_II_test.csv")

re_MHCII <- CalEpletMHCII(dat_in = dat_MHCII, ver = 3)

head(re_MHCII)

## $single_detail
## # A tibble: 130 × 6
## # Rowwise: 
##    pair_id subject hla        haplotype_id mm_eplets                      mm_cnt
##      <int> <chr>   <chr>      <chr>        <chr>                           <dbl>
##  1     101 subj1   DPA1*02:01 1            "50R,111R,127P"                     3
##  2     101 subj1   DPA1*04:01 2            "50R,127P,190A"                     3
##  3     101 subj1   DPB1*31:01 1            "35FA"                              1
##  4     101 subj1   DPB1*02:01 2            "69E,rp58E,rp67IE,qp67IE,84G,…      7
##  5     101 subj1   DQA1*02:01 1            "47KHL"                             1
##  6     101 subj1   DQA1*05:02 2            ""                                  0
##  7     101 subj1   DQB1*06:49 1            "77T,87F,rqp37YA,rqp57D,rq77T…      6
##  8     101 subj1   DQB1*04:02 2            "56L,77T,rq75VT,rqp37YA,rqp57…     11
##  9     101 subj1   DRB1*04:01 1            "37YV,96Y,98E,rq37YV,37Y"           5
## 10     101 subj1   DRB1*08:01 2            "16Y,37YV,57S,rq37YV,rq57S,37…      8
## # ℹ 120 more rows
## 
## $overall_count
…
